{
	"status": true,
	"ReturnData": {
		"devices_by_province": [{
			"province_id": 38,
			"total_devices": 2,
			"count_all_devices": 2,
			"population": 1763742,
			"province_region": "Chiang Mai"
		}, {
			"province_id": 41,
			"total_devices": 1,
			"count_all_devices": 1,
			"population": 455403,
			"province_region": "Uttaradit"
		}],
		"devices_school_rel_province": {
			"41": {
				"province_id": 41,
				"province_name": "Changwat Uttaradit",
				"count_all_devices": 1,
				"total_devices": 1,
				"Schools": {
					"1053690212": {
						"SchoolID": "1053690212",
						"SchoolName": "\u0e41\u0e2b\u0e25\u0e21\u0e19\u0e01\u0e41\u0e01\u0e49\u0e27",
						"total_devices": 1,
						"count_all_devices": 1,
						"devices": {
							"47332": {
								"device_id": 47332
							}
						}
					}
				}
			},
			"38": {
				"province_id": 38,
				"province_name": "Chiang Mai Province",
				"count_all_devices": 2,
				"total_devices": 2,
				"Schools": {
					"1050130609": {
						"SchoolID": "1050130609",
						"SchoolName": "\u0e1a\u0e49\u0e32\u0e19\u0e2b\u0e19\u0e2d\u0e07\u0e21\u0e30\u0e08\u0e31\u0e1a",
						"total_devices": 1,
						"count_all_devices": 1,
						"devices": {
							"59161": {
								"device_id": 59161
							}
						}
					},
					"1050130091": {
						"SchoolID": "1050130091",
						"SchoolName": "\u0e1a\u0e49\u0e32\u0e19\u0e41\u0e21\u0e48\u0e41\u0e21\u0e30",
						"total_devices": 1,
						"count_all_devices": 1,
						"devices": {
							"28004": {
								"device_id": 28004
							}
						}
					}
				}
			}
		}
	},
	"result_code": "000",
	"result_desc": "Success"
}
